{
  "main.css": "static/css/admin-app.c418df74.css",
  "main.css.map": "static/css/admin-app.c418df74.css.map",
  "main.js": "static/js/admin-app.cbb935e9.js",
  "main.js.map": "static/js/admin-app.cbb935e9.js.map"
}