{
	"DbType": "postgres",
	"DbUrl": "postgres://quadb:quadb@db/quadb?sslmode=disable",
	"MaxOrders": 100,
	"AwsAccessKey": "AKIAIOSFODNN7EXAMPLE",
	"AwsSecretKey": "wJalrXUtnFEMI/K7MDENG/bPxRfiCYEXAMPLEKEY",
	"ObjectStoreUrl": "minio-server:9000",
	"Bucket": "quadbusercontent"
}
