[
    {
        "name": "error",
        "components": [ "error", "header", "footer" ]
    },
    {
        "name": "index",
        "components": [ "header", "index", "footer"]
    },
    {
        "name": "blog",
        "components": [ "header", "blog", "footer"]
    },
    {
        "name": "blog_list",
        "components": [ "header", "blog_list", "footer"]
    },
    {
        "name": "new_blog",
        "components": [ "new_blog" ]
    },
    {
        "name": "success",
        "components": [ "header", "success", "footer"]
    },
    {
        "name": "under_maintenance",
        "components": [ "header", "under_maintenance", "footer"]
    },
    {
        "name": "react",
        "components": [ "header", "react", "footer"]
    },
    {
        "name": "admin",
        "components": [ "admin", "react_widget" ]
    }
]